<?xml version="1.0"?> 
<sdf version="1.5">

<!--<gazebo version="1.0">-->
  <world name="default">
    <scene>
      <ambient>0.8 0.8 0.8 1</ambient>
      <background>0.5 0.5 0.5 1</background>
      <shadows>0</shadows> 
    </scene>

<physics name='default_physics' default='0' type='ode'>
      <max_step_size>0.001</max_step_size>
      <real_time_factor>1</real_time_factor>
      <real_time_update_rate>1000</real_time_update_rate>
    </physics>


    <!-- Ground Plane -->
    <model name="gplane" static="true">
      <origin pose="0 0 0 0 0 0"/>
      <link name="body">
        <collision name="gplane_coll" laser_retro="2000.0">
          <geometry>
            <plane normal="0 0 1"/>
          </geometry>
          <surface>

            <contact>
              <ode kp="1000000.0" kd="1"/>
            </contact>
          </surface>
        </collision>
        <visual name="gplane_vis" cast_shadows="false">
          <geometry>
            <plane normal="0 0 1"/>
          </geometry>
          <material script="Gazebo/Grey"/>
        </visual>
      </link>
    </model>

    <light type="point" name="point_white1">
      <pose>2.6 .3 3 0 0 0</pose>
      <diffuse>0.8 0.8 0.8 1</diffuse>
      <specular>.1 .1 .1 1</specular>
      <attenuation>
        <range>20</range>
        <linear>0.2</linear>
        <constant>0.8</constant>
        <quadratic>0.01</quadratic>
      </attenuation>
      <cast_shadows>false</cast_shadows>
    </light>

    <light type="point" name="point_white2">
      <pose>-2.6 .3 3 0 0 0</pose>
      <diffuse>0.3 0.3 0.3 1</diffuse>
      <specular>.1 .1 .1 1</specular>
      <attenuation>
        <range>20</range>
        <linear>0.1</linear>
        <constant>0.2</constant>
        <quadratic>0.0</quadratic>
      </attenuation>
      <cast_shadows>false</cast_shadows>
    </light>
    
    
    <include>
      <uri>model://cafe_table</uri>
      <pose>0.12 -0.97 0.03 0 0 0</pose>
    </include>    

    <include>
      <uri>model://bowl</uri>
      <pose>-0.12 -0.87 0.81 0 0 0</pose>
    </include>
    
    <include>
      <uri>model://beer</uri>
      <pose>0.3 -0.89 0.81 0 0 0</pose>
    </include>    

    <include>
      <uri>model://cricket_ball</uri>
      <pose>0.10 -0.84 0.81 0 0 0</pose>
    </include> 


  </world>
<!--</gazebo>-->

</sdf>

